Block! Block!,5,8,1,0,Block! Block!
Tresspass,13,3,1,0,Tresspass
what,10,1,1,0,what
tunnels,11,200,1,0,tunnels
aztec,14,250,1,1,aztec
Manic Mountain,2,70,2,0,Manic Mountain
Evening Fracas,7,8,2,0,Evening Fracas
Meadows,4,15,2,0,Meadows
humanitary,1,10,2,0,humanitary
torch,9,120,3,1,torch